{
	"src": {
		"css": "app/assets/css/app.scss",
		"js": "app/assets/js/*.js",
		"fonts": "app/assets/fonts/*.ttf"
	},
	"tmp": {
		"css": ".tmp/assets/css",
		"js": ".tmp/assets/js",
		"fonts": ".tmp/assets/fonts"
	},
	"dist": {
		"css": "dist/assets/css",
		"js": "",
		"img": "dist/assets/images",
		"fonts": "dist/assets/fonts"
	},
	"vendors": [
		"jquery",
		"slick-carousel",
		"slick-carousel/slick/slick.css",
		"normalize-css",
		"babel-polyfill",
		"fastclick"
	]
}